Calibración del ensemble
…
## Warning: Dropping 'draws_df' class as required metadata was removed.

## Warning: Dropping 'draws_df' class as required metadata was removed.

sims_casillas <- sims_casillas %>% left_join(datos_ent %>% select(no_casilla, estrato_df, ln)) 

## Joining, by = "no_casilla"

sims_casillas

## # A tibble: 2,508,000 x 6
##    .draw sigma   y_f no_casilla estrato_df    ln
##    <int> <dbl> <dbl>      <int>      <dbl> <dbl>
##  1     1 0.865   164          1          1   664
##  2     1 0.865   140          2          1   663
##  3     1 0.865   177          3          1   663
##  4     1 0.865   161          4          1   664
##  5     1 0.865   207          5          1   664
##  6     1 0.865    27          6          2   634
##  7     1 0.865    10          7          2   633
##  8     1 0.865     9          8          2   634
##  9     1 0.865   177          9          1   583
## 10     1 0.865   110         10          1   420
## # … with 2,507,990 more rows
…
