Calibración del ensemble
…
## Warning: Dropping 'draws_df' class as required metadata was removed.

## Warning: Dropping 'draws_df' class as required metadata was removed.

sims_casillas <- sims_casillas %>% left_join(datos_ent %>% select(no_casilla, estrato_df, ln)) 

## Joining, by = "no_casilla"

sims_casillas

## # A tibble: 5,286,000 x 6
##    .draw sigma   y_f no_casilla estrato_df    ln
##    <int> <dbl> <dbl>      <int>      <dbl> <dbl>
##  1     1 0.865   160          1          1   571
##  2     1 0.865    98          2          1   404
##  3     1 0.865    81          3          1   404
##  4     1 0.865   136          4          1   409
##  5     1 0.865    77          5          1   408
##  6     1 0.865   149          6          1   574
##  7     1 0.865   192          7          1   665
##  8     1 0.865    78          8          1   436
##  9     1 0.865    83          9          1   436
## 10     1 0.865   175         10          1   658
## # … with 5,285,990 more rows
…
