Calibración del ensemble
…
## Warning: Dropping 'draws_df' class as required metadata was removed.

## Warning: Dropping 'draws_df' class as required metadata was removed.

sims_casillas <- sims_casillas %>% left_join(datos_ent %>% select(no_casilla, estrato_df, ln)) 

## Joining, by = "no_casilla"

sims_casillas

## # A tibble: 1,668,000 x 6
##    .draw sigma   y_f no_casilla estrato_df    ln
##    <int> <dbl> <dbl>      <int>      <dbl> <dbl>
##  1     1 0.865    17          1          3   524
##  2     1 0.865    17          2          3   502
##  3     1 0.865     2          3          3   502
##  4     1 0.865    11          4          3   669
##  5     1 0.865    12          5          3   668
##  6     1 0.865    12          6          3   668
##  7     1 0.865    13          7          3   694
##  8     1 0.865     5          8          3   476
##  9     1 0.865     9          9          3   475
## 10     1 0.865     0         10          1   439
## # … with 1,667,990 more rows
…
