Calibración del ensemble
…
## Warning: Dropping 'draws_df' class as required metadata was removed.

## Warning: Dropping 'draws_df' class as required metadata was removed.

sims_casillas <- sims_casillas %>% left_join(datos_ent %>% select(no_casilla, estrato_df, ln)) 

## Joining, by = "no_casilla"

sims_casillas

## # A tibble: 950,000 x 6
##    .draw sigma   y_f no_casilla estrato_df    ln
##    <int> <dbl> <dbl>      <int>      <dbl> <dbl>
##  1     1 0.865     1          1          2   668
##  2     1 0.865    16          2          2   667
##  3     1 0.865     2          3          2   668
##  4     1 0.865    34          4          2   668
##  5     1 0.865    33          5          2   667
##  6     1 0.865     2          6          2   667
##  7     1 0.865     8          7          2   667
##  8     1 0.865     5          8          2   667
##  9     1 0.865    73          9          1   422
## 10     1 0.865   107         10          1   421
## # … with 949,990 more rows
…
