Calibración del ensemble
…
## Warning: Dropping 'draws_df' class as required metadata was removed.

## Warning: Dropping 'draws_df' class as required metadata was removed.

sims_casillas <- sims_casillas %>% left_join(datos_ent %>% select(no_casilla, estrato_df, ln)) 

## Joining, by = "no_casilla"

sims_casillas

## # A tibble: 1,668,000 x 6
##    .draw sigma   y_f no_casilla estrato_df    ln
##    <int> <dbl> <dbl>      <int>      <dbl> <dbl>
##  1     1  1.73    21          1          1   524
##  2     1  1.73    23          2          1   502
##  3     1  1.73    32          3          1   502
##  4     1  1.73    53          4          1   669
##  5     1  1.73    42          5          1   668
##  6     1  1.73    43          6          1   668
##  7     1  1.73    39          7          1   694
##  8     1  1.73    24          8          1   476
##  9     1  1.73    21          9          1   475
## 10     1  1.73    11         10          1   439
## # … with 1,667,990 more rows
…
