Modelo base conjunto - calibración posterior 2018
…
ajuste$summary(variables = c("prop_votos", "sigma", "beta_0", "beta", "kappa"))

## # A tibble: 79 x 10
##    variable   mean median      sd     mad      q5    q95  rhat ess_bulk ess_tail
##    <chr>     <dbl>  <dbl>   <dbl>   <dbl>   <dbl>  <dbl> <dbl>    <dbl>    <dbl>
##  1 prop_vo… 0.654  0.654  4.48e-3 4.42e-3 0.646   0.661   1.00    1363.    1154.
##  2 prop_vo… 0.137  0.137  2.76e-3 2.70e-3 0.133   0.142   1.00    1128.    1099.
##  3 prop_vo… 0.162  0.162  3.09e-3 3.07e-3 0.157   0.167   1.00    1199.    1066.
##  4 prop_vo… 0.0217 0.0217 6.82e-4 6.71e-4 0.0207  0.0229  1.00    1179.    1089.
##  5 prop_vo… 0.0257 0.0257 6.61e-4 6.87e-4 0.0246  0.0268  1.00    1208.    1069.
##  6 sigma[1] 0.0661 0.0552 5.14e-2 4.99e-2 0.00477 0.163   1.02     219.     493.
##  7 sigma[2] 0.170  0.158  7.03e-2 6.49e-2 0.0722  0.303   1.01     306.     670.
##  8 sigma[3] 0.202  0.192  7.93e-2 6.48e-2 0.0967  0.339   1.00     400.     551.
##  9 sigma[4] 0.398  0.379  1.08e-1 1.00e-1 0.253   0.597   1.01     512.     945.
## 10 sigma[5] 0.0630 0.0519 4.90e-2 4.42e-2 0.00518 0.151   1.00     529.     814.
## # … with 69 more rows
…
